Working with Time Series · PowerSystems.jl
…
julia> add_time_series!(system, wind1, wind_time_series);
Let's double-check this worked by calling show_time_series:

julia> show_time_series(wind1)┌──────────────────┬──────────────────┬─────────────────────┬─────────────────────┬────────┬─────────────────────┐
│ time_series_type │             name │   initial_timestamp │          resolution │ length │            features │
│           String │           String │      Dates.DateTime │   Dates.Millisecond │  Int64 │   Dict{String, Any} │
├──────────────────┼──────────────────┼─────────────────────┼─────────────────────┼────────┼─────────────────────┤
│ SingleTimeSeries │ max_active_power │ 2020-01-01T08:00:00 │ 300000 milliseconds │     24 │ Dict{String, Any}() │
└──────────────────┴──────────────────┴─────────────────────┴─────────────────────┴────────┴─────────────────────┘
Now wind1 has the first time-series data set. Recall that you can also print wind1 and check the has_time_series field like we did above.
Finally, let's retrieve and inspect the new timeseries, using get_time_series_array:

julia> get_time_series_array(SingleTimeSeries, wind1, "max_active_power")24×1 TimeSeries.TimeArray{Float64, 1, Dates.DateTime, Vector{Float64}} 2020-01-01T08:00:00 to 2020-01-01T09:55:00
┌─────────────────────┬─────┐
│                     │ A   │
├─────────────────────┼─────┤
│ 2020-01-01T08:00:00 │ 6.0 │
│ 2020-01-01T08:05:00 │ 7.0 │
│ 2020-01-01T08:10:00 │ 7.0 │
│ 2020-01-01T08:15:00 │ 6.0 │
│ 2020-01-01T08:20:00 │ 7.0 │
│ 2020-01-01T08:25:00 │ 9.0 │
│ 2020-01-01T08:30:00 │ 9.0 │
│ 2020-01-01T08:35:00 │ 9.0 │
│          ⋮          │  ⋮  │
│ 2020-01-01T09:25:00 │ 6.0 │
│ 2020-01-01T09:30:00 │ 6.0 │
│ 2020-01-01T09:35:00 │ 6.0 │
│ 2020-01-01T09:40:00 │ 7.0 │
│ 2020-01-01T09:45:00 │ 6.0 │
│ 2020-01-01T09:50:00 │ 7.0 │
│ 2020-01-01T09:55:00 │ 7.0 │
└─────────────────────┴─────┘
               9 rows omitted
…
julia> show_time_series(load1)┌──────────────────┬──────────────────┬─────────────────────┬─────────────────────┬────────┬─────────────────────┐
│ time_series_type │             name │   initial_timestamp │          resolution │ length │            features │
│           String │           String │      Dates.DateTime │   Dates.Millisecond │  Int64 │   Dict{String, Any} │
├──────────────────┼──────────────────┼─────────────────────┼─────────────────────┼────────┼─────────────────────┤
│ SingleTimeSeries │ max_active_power │ 2020-01-01T08:00:00 │ 300000 milliseconds │     24 │ Dict{String, Any}() │
└──────────────────┴──────────────────┴─────────────────────┴─────────────────────┴────────┴─────────────────────┘
ImportantNotice that each load now has two references to max_active_power. This is intentional. There is the parameter, max_active_power, which is  the maximum demand of each load at any time (10 MW or 30 MW). There is also max_active_power the time series, which is the time varying demand over the 2-hour window, calculated using the scaling factors and the max_active_power parameter.
This means that if we change the max_active_power parameter, the time series will also change when we retrieve it! This is also true when we apply the same scaling factors to multiple components or parameters.

Let's check the impact that these two max_active_power data sources have on the times series data when we retrieve it. Get the max_active_power time series for load1:

julia> get_time_series_array(SingleTimeSeries, load1, "max_active_power") # in MW24×1 TimeSeries.TimeArray{Float64, 1, Dates.DateTime, Vector{Float64}} 2020-01-01T08:00:00 to 2020-01-01T09:55:00
┌─────────────────────┬─────┐
│                     │ A   │
├─────────────────────┼─────┤
│ 2020-01-01T08:00:00 │ 3.0 │
│ 2020-01-01T08:05:00 │ 3.0 │
│ 2020-01-01T08:10:00 │ 3.0 │
│ 2020-01-01T08:15:00 │ 3.0 │
│ 2020-01-01T08:20:00 │ 4.0 │
│ 2020-01-01T08:25:00 │ 4.0 │
│ 2020-01-01T08:30:00 │ 4.0 │
│ 2020-01-01T08:35:00 │ 4.0 │
│          ⋮          │  ⋮  │
│ 2020-01-01T09:25:00 │ 8.0 │
│ 2020-01-01T09:30:00 │ 9.0 │
│ 2020-01-01T09:35:00 │ 8.0 │
│ 2020-01-01T09:40:00 │ 8.0 │
│ 2020-01-01T09:45:00 │ 8.0 │
│ 2020-01-01T09:50:00 │ 8.0 │
│ 2020-01-01T09:55:00 │ 8.0 │
└─────────────────────┴─────┘
               9 rows omitted
See that the normalized values have been scaled up by 10 MW.
Now let's at load2. First check its max_active_power parameter:

julia> get_max_active_power(load2)30.0
This has a higher peak maximum demand of 30 MW.
Next, retrieve it's max_active_power time series:

julia> get_time_series_array(SingleTimeSeries, load2, "max_active_power") # in MW24×1 TimeSeries.TimeArray{Float64, 1, Dates.DateTime, Vector{Float64}} 2020-01-01T08:00:00 to 2020-01-01T09:55:00
┌─────────────────────┬──────┐
│                     │ A    │
├─────────────────────┼──────┤
│ 2020-01-01T08:00:00 │  9.0 │
│ 2020-01-01T08:05:00 │  9.0 │
│ 2020-01-01T08:10:00 │  9.0 │
│ 2020-01-01T08:15:00 │  9.0 │
│ 2020-01-01T08:20:00 │ 12.0 │
│ 2020-01-01T08:25:00 │ 12.0 │
│ 2020-01-01T08:30:00 │ 12.0 │
│ 2020-01-01T08:35:00 │ 12.0 │
│          ⋮          │  ⋮   │
│ 2020-01-01T09:25:00 │ 24.0 │
│ 2020-01-01T09:30:00 │ 27.0 │
│ 2020-01-01T09:35:00 │ 24.0 │
│ 2020-01-01T09:40:00 │ 24.0 │
│ 2020-01-01T09:45:00 │ 24.0 │
│ 2020-01-01T09:50:00 │ 24.0 │
│ 2020-01-01T09:55:00 │ 24.0 │
└─────────────────────┴──────┘
                9 rows omitted
Observe the difference compared to load1's time series.
Finally, retrieve the underlying time series data with no scaling factor multiplier applied:

julia> get_time_series_array(SingleTimeSeries,
           load2,
           "max_active_power";
           ignore_scaling_factors = true,
       )24×1 TimeSeries.TimeArray{Float64, 1, Dates.DateTime, Vector{Float64}} 2020-01-01T08:00:00 to 2020-01-01T09:55:00
┌─────────────────────┬─────┐
│                     │ A   │
├─────────────────────┼─────┤
│ 2020-01-01T08:00:00 │ 0.3 │
│ 2020-01-01T08:05:00 │ 0.3 │
│ 2020-01-01T08:10:00 │ 0.3 │
│ 2020-01-01T08:15:00 │ 0.3 │
│ 2020-01-01T08:20:00 │ 0.4 │
│ 2020-01-01T08:25:00 │ 0.4 │
│ 2020-01-01T08:30:00 │ 0.4 │
│ 2020-01-01T08:35:00 │ 0.4 │
│          ⋮          │  ⋮  │
│ 2020-01-01T09:25:00 │ 0.8 │
│ 2020-01-01T09:30:00 │ 0.9 │
│ 2020-01-01T09:35:00 │ 0.8 │
│ 2020-01-01T09:40:00 │ 0.8 │
│ 2020-01-01T09:45:00 │ 0.8 │
│ 2020-01-01T09:50:00 │ 0.8 │
│ 2020-01-01T09:55:00 │ 0.8 │
└─────────────────────┴─────┘
               9 rows omitted
…
