Add time series fuel costs · PowerSystems.jl
…
 2024-01-01T08:00:00
 2024-01-01T09:00:00
 ⋮
 2024-01-01T15:00:00
 2024-01-01T16:00:00
 2024-01-01T17:00:00
 2024-01-01T18:00:00
 2024-01-01T19:00:00
 2024-01-01T20:00:00
 2024-01-01T21:00:00
 2024-01-01T22:00:00
 2024-01-01T23:00:00
julia> # Create a TimeArray with timestamps and data
       time_array = TimeArray(timestamps, fuel_cost_data)24×1 TimeSeries.TimeArray{Float64, 1, Dates.DateTime, Vector{Float64}} 2024-01-01T00:00:00 to 2024-01-01T23:00:00
┌─────────────────────┬─────┐
│                     │ A   │
├─────────────────────┼─────┤
│ 2024-01-01T00:00:00 │ 4.5 │
│ 2024-01-01T01:00:00 │ 4.3 │
│ 2024-01-01T02:00:00 │ 4.2 │
│ 2024-01-01T03:00:00 │ 4.1 │
│ 2024-01-01T04:00:00 │ 4.2 │
│ 2024-01-01T05:00:00 │ 4.5 │
│ 2024-01-01T06:00:00 │ 5.0 │
│ 2024-01-01T07:00:00 │ 5.5 │
│          ⋮          │  ⋮  │
│ 2024-01-01T17:00:00 │ 7.0 │
│ 2024-01-01T18:00:00 │ 6.5 │
│ 2024-01-01T19:00:00 │ 6.0 │
│ 2024-01-01T20:00:00 │ 5.5 │
│ 2024-01-01T21:00:00 │ 5.0 │
│ 2024-01-01T22:00:00 │ 4.8 │
│ 2024-01-01T23:00:00 │ 4.6 │
└─────────────────────┴─────┘
               9 rows omitted
…
julia> # Get the fuel cost time series starting at the initial time
       fuel_forecast = get_fuel_cost(generator; start_time = initial_time)24×1 TimeSeries.TimeArray{Float64, 1, Dates.DateTime, Vector{Float64}} 2024-01-01T00:00:00 to 2024-01-01T23:00:00
┌─────────────────────┬─────┐
│                     │ A   │
├─────────────────────┼─────┤
│ 2024-01-01T00:00:00 │ 4.5 │
│ 2024-01-01T01:00:00 │ 4.3 │
│ 2024-01-01T02:00:00 │ 4.2 │
│ 2024-01-01T03:00:00 │ 4.1 │
│ 2024-01-01T04:00:00 │ 4.2 │
│ 2024-01-01T05:00:00 │ 4.5 │
│ 2024-01-01T06:00:00 │ 5.0 │
│ 2024-01-01T07:00:00 │ 5.5 │
│          ⋮          │  ⋮  │
│ 2024-01-01T17:00:00 │ 7.0 │
│ 2024-01-01T18:00:00 │ 6.5 │
│ 2024-01-01T19:00:00 │ 6.0 │
│ 2024-01-01T20:00:00 │ 5.5 │
│ 2024-01-01T21:00:00 │ 5.0 │
│ 2024-01-01T22:00:00 │ 4.8 │
│ 2024-01-01T23:00:00 │ 4.6 │
└─────────────────────┴─────┘
               9 rows omitted
…
  DateTime("2024-01-01T00:00:00") => [4.5, 4.3, 4.2, 4.1, 4.2, 4.5, 5.0, 5.5, 6…
julia> fuel_cost_deterministic = Deterministic(;
           name = "fuel_cost",
           data = deterministic_data,
           resolution = resolution,
       )Deterministic("fuel_cost", DataStructures.SortedDict(Dates.DateTime("2024-01-01T00:00:00") => [4.5, 4.3, 4.2, 4.1, 4.2, 4.5, 5.0, 5.5, 6.0, 6.5  …  7.8, 7.8, 7.5, 7.0, 6.5, 6.0, 5.5, 5.0, 4.8, 4.6]), Dates.Hour(1), Dates.Second(0), nothing, InfrastructureSystems.InfrastructureSystemsInternal(Base.UUID("6d82253d-6bb2-44d2-9953-26c85057506d"), nothing, nothing, nothing))
julia> set_fuel_cost!(sys, generator3, fuel_cost_deterministic)FuelCurve:
  value_curve: LinearCurve (a type of InputOutputCurve) where function is: f(x) = 7.8 x + 0.0
  power_units: UnitSystem.NATURAL_UNITS = 2
  fuel_cost: ForecastKey(Deterministic, "fuel_cost", Dates.DateTime("2024-01-01T00:00:00"), Dates.Hour(1), Dates.Hour(24), Dates.Second(0), 1, Dict{String, Any}())
  startup_fuel_offtake: LinearCurve (a type of InputOutputCurve) where function is: f(x) = 0.0 x + 0.0
  vom_cost: LinearCurve (a type of InputOutputCurve) where function is: f(x) = 0.0 x + 0.0
julia> # Retrieve the forecast starting at the initial time
       fuel_det_forecast = get_fuel_cost(generator3; start_time = initial_time)24×1 TimeSeries.TimeArray{Float64, 1, Dates.DateTime, Vector{Float64}} 2024-01-01T00:00:00 to 2024-01-01T23:00:00
┌─────────────────────┬─────┐
│                     │ A   │
├─────────────────────┼─────┤
│ 2024-01-01T00:00:00 │ 4.5 │
│ 2024-01-01T01:00:00 │ 4.3 │
│ 2024-01-01T02:00:00 │ 4.2 │
│ 2024-01-01T03:00:00 │ 4.1 │
│ 2024-01-01T04:00:00 │ 4.2 │
│ 2024-01-01T05:00:00 │ 4.5 │
│ 2024-01-01T06:00:00 │ 5.0 │
│ 2024-01-01T07:00:00 │ 5.5 │
│          ⋮          │  ⋮  │
│ 2024-01-01T17:00:00 │ 7.0 │
│ 2024-01-01T18:00:00 │ 6.5 │
│ 2024-01-01T19:00:00 │ 6.0 │
│ 2024-01-01T20:00:00 │ 5.5 │
│ 2024-01-01T21:00:00 │ 5.0 │
│ 2024-01-01T22:00:00 │ 4.8 │
│ 2024-01-01T23:00:00 │ 4.6 │
└─────────────────────┴─────┘
               9 rows omitted
…
