Add time series fuel costs · PowerSystems.jl
…
 2024-01-01T08:00:00
 2024-01-01T09:00:00
 ⋮
 2024-01-01T15:00:00
 2024-01-01T16:00:00
 2024-01-01T17:00:00
 2024-01-01T18:00:00
 2024-01-01T19:00:00
 2024-01-01T20:00:00
 2024-01-01T21:00:00
 2024-01-01T22:00:00
 2024-01-01T23:00:00
julia> # Create a TimeArray with timestamps and data
       time_array = TimeArray(timestamps, fuel_cost_data)24×1 TimeSeries.TimeArray{Float64, 1, Dates.DateTime, Vector{Float64}} 2024-01-01T00:00:00 to 2024-01-01T23:00:00
┌─────────────────────┬─────┐
│                     │ A   │
├─────────────────────┼─────┤
│ 2024-01-01T00:00:00 │ 4.5 │
│ 2024-01-01T01:00:00 │ 4.3 │
│ 2024-01-01T02:00:00 │ 4.2 │
│ 2024-01-01T03:00:00 │ 4.1 │
│ 2024-01-01T04:00:00 │ 4.2 │
│ 2024-01-01T05:00:00 │ 4.5 │
│ 2024-01-01T06:00:00 │ 5.0 │
│ 2024-01-01T07:00:00 │ 5.5 │
│          ⋮          │  ⋮  │
│ 2024-01-01T17:00:00 │ 7.0 │
│ 2024-01-01T18:00:00 │ 6.5 │
│ 2024-01-01T19:00:00 │ 6.0 │
│ 2024-01-01T20:00:00 │ 5.5 │
│ 2024-01-01T21:00:00 │ 5.0 │
│ 2024-01-01T22:00:00 │ 4.8 │
│ 2024-01-01T23:00:00 │ 4.6 │
└─────────────────────┴─────┘
               9 rows omitted
…
julia> # Get the fuel cost time series starting at the initial time
       fuel_forecast = get_fuel_cost(generator; start_time = initial_time)24×1 TimeSeries.TimeArray{Float64, 1, Dates.DateTime, Vector{Float64}} 2024-01-01T00:00:00 to 2024-01-01T23:00:00
┌─────────────────────┬─────┐
│                     │ A   │
├─────────────────────┼─────┤
│ 2024-01-01T00:00:00 │ 4.5 │
│ 2024-01-01T01:00:00 │ 4.3 │
│ 2024-01-01T02:00:00 │ 4.2 │
│ 2024-01-01T03:00:00 │ 4.1 │
│ 2024-01-01T04:00:00 │ 4.2 │
│ 2024-01-01T05:00:00 │ 4.5 │
│ 2024-01-01T06:00:00 │ 5.0 │
│ 2024-01-01T07:00:00 │ 5.5 │
│          ⋮          │  ⋮  │
│ 2024-01-01T17:00:00 │ 7.0 │
│ 2024-01-01T18:00:00 │ 6.5 │
│ 2024-01-01T19:00:00 │ 6.0 │
│ 2024-01-01T20:00:00 │ 5.5 │
│ 2024-01-01T21:00:00 │ 5.0 │
│ 2024-01-01T22:00:00 │ 4.8 │
│ 2024-01-01T23:00:00 │ 4.6 │
└─────────────────────┴─────┘
               9 rows omitted
…
