Quick Start Guide · PowerSystems.jl
…
 0.95
 0.92
 ⋮
 0.52
 0.39
 0.28
 0.19
 0.15
 0.13
 0.11
 0.09
 0.06
julia> time_stamps = range(DateTime("2020-01-01"); step = Hour(1), length = 24)Dates.DateTime("2020-01-01T00:00:00"):Dates.Hour(1):Dates.DateTime("2020-01-01T23:00:00")
julia> time_series_data_raw = TimeArray(time_stamps, ts_data)24×1 TimeSeries.TimeArray{Float64, 1, Dates.DateTime, Vector{Float64}} 2020-01-01T00:00:00 to 2020-01-01T23:00:00
┌─────────────────────┬──────┐
│                     │ A    │
├─────────────────────┼──────┤
│ 2020-01-01T00:00:00 │ 0.98 │
│ 2020-01-01T01:00:00 │ 0.99 │
│ 2020-01-01T02:00:00 │ 0.99 │
│ 2020-01-01T03:00:00 │  1.0 │
│ 2020-01-01T04:00:00 │ 0.99 │
│ 2020-01-01T05:00:00 │ 0.99 │
│ 2020-01-01T06:00:00 │ 0.99 │
│ 2020-01-01T07:00:00 │ 0.98 │
│          ⋮          │  ⋮   │
│ 2020-01-01T17:00:00 │ 0.28 │
│ 2020-01-01T18:00:00 │ 0.19 │
│ 2020-01-01T19:00:00 │ 0.15 │
│ 2020-01-01T20:00:00 │ 0.13 │
│ 2020-01-01T21:00:00 │ 0.11 │
│ 2020-01-01T22:00:00 │ 0.09 │
│ 2020-01-01T23:00:00 │ 0.06 │
└─────────────────────┴──────┘
                9 rows omitted
…
